{
  "firstName": "Abhishek",
  "lastName": "Singh",
  "emailAddress": "abhisheksingh.120120@gmail.com",
  "password": "Abhishek@123",
  "confirmPassword": "Abhishek@123",
  "dob": "2023-06-22T12:02:19.266Z",
  "genderId": 1,
  "districtId": 1,
  "cityId": 1,
  "stateId": 1,
  "nationId": 1,
  "mobileNumber": "9769164808",
  "roleId": "3171ee1f-2bfb-4512-b191-08db6589c664"
}
